{
  "extends": ["tslint:recommended", "tslint-react", "tslint-config-prettier"],
  "linterOptions": {
    "exclude": [
      "config/**/*.js",
      "node_modules/**/*.ts",
      "coverage/lcov-report/*.js"
    ]
  },
  "rules": {
    "interface-name" : [true, "never-prefix"],
    "object-literal-sort-keys": false,
    "no-console": false,
    "no-unused-variable": [false, {"ignore-pattern": "^_"}]
  }
}
